#474 - Yaik

owner = F01
controller = F01
add_core = F01
culture = kheteratan
religion = khetist

hre = no

base_tax = 4
base_production = 4
base_manpower = 3

trade_goods = gems

capital = ""

is_city = yes










