cave_goblin_column_5 = {
	slot = 5
	generic = yes
	ai = yes
	potential = {
		primary_culture = cave_goblin
	}
	has_country_shield = no

	g_absorbing_the_disorganized_nezkaru = {
		icon = mission_fortify_rajputana
		position = 1
		required_missions = {

		}
		trigger = {
			num_of_colonists = 1
			if = {
				limit = {
					ai = yes
				}
				AND = {
					ai = yes
					is_year = 1446
				}
			}
			else = {
				OR = {
					adm_tech = 3
					any_owned_province = {
						NOT = { is_core = FROM }
					}
					AND = {
						adm_power = 100
						treasury = 100
					}
				}
			}
		}
		
		effect = {
			if = {
				limit = {
					ai = yes
				}
				add_treasury = 60
				add_country_modifier = {
					name = cave_goblin_absorption
					duration = 9125
				}
			}
			else_if = {
				limit = {
					adm_power = 100
					treasury = 100
				}
				add_adm_power = -100
				add_treasury = -100
				add_country_modifier = {
					name = cave_goblin_absorption
					duration = 9125
				}
			}
			else = {
				add_country_modifier = {
					name = cave_goblin_absorption
					duration = 9125
				}
			}
		}
	}
	g_integrating_new_nezkaru = {
		icon = mission_fortify_rajputana
		position = 1
		required_missions = {
			g_absorbing_the_disorganized_nezkaru
		}
		trigger = {
			#grown_by_development = 6
			dip_power = 150
		}
		
		effect = {
			add_dip_power = -150
			add_country_modifier = {
				name = cave_goblin_expansionism
				duration = 9125
			}
		}
	}
	g_collecting_new_tithes = {
		icon = mission_fortify_rajputana
		position = 1
		required_missions = {
			g_integrating_new_nezkaru
		}
		trigger = {
			grown_by_development = 9
		}
		
		effect = {
			add_treasury = 60
		}
	}


    cave_goblin_riches_of_the_dwarovar = {
		icon = mission_fortify_rajputana
		position = 4
		required_missions = {

		}
		trigger = {
			any_owned_province = {
               		 AND = {
                    	OR = {
                      		trade_goods = mithril
                    		trade_goods = gold
                   		}
                  	  	base_production = 5
					}
            }
		}
		
		effect = {
			add_years_of_income = 1
		}
	}
    cave_goblin_drunk_on_conquest = {
		icon = mission_fortify_rajputana
		position = 5
		required_missions = {
		
		}
		trigger = {
			wine = 5
		}
		
		effect = {
			add_country_modifier = {
                name = cave_goblin_wine
                duration = 7300
            }
		}
	}
    cave_goblin_fungus_among_us = {
		icon = mission_fortify_rajputana
		position = 6
		required_missions = {
		
		}
		trigger = {
			if = {
				limit = {
					tag = H75
				}
				fungi = 5
			}
			else = { fungi = 3 }
		}
		
		effect = {
			#add manpower and a goods modifier to 3 random provinces
			random_owned_province = {
				limit = {
					trade_goods = fungi
				}
                add_base_manpower = 1
                add_province_modifier = {
                    name = cave_goblin_fungus_prov
                    duration = 7300
                }
			}
			
			random_owned_province = {
				limit = {
					trade_goods = fungi
				}
                add_base_manpower = 1
                add_permanent_province_modifier = {
                    name = cave_goblin_fungus_prov
                    duration = 7300
                }
			}
			
			random_owned_province = {
				limit = {
					trade_goods = fungi
				}
                add_base_manpower = 1
                add_permanent_province_modifier = {
                    name = cave_goblin_fungus_prov
                    duration = 7300
                }
            }
		}
	}
	cave_goblin_weapons_for_the_warband = {
		icon = mission_fortify_rajputana
		position = 7
		required_missions = {
		
		}
		trigger = {
			if = {
				limit = {
					OR = {
						tag = H75
						tag = H74
					}
				}
				any_owned_province = {
					trade_goods = iron
					base_production = 5
				}
			}
			else = { 
				any_owned_province = {
					trade_goods = iron
					base_production = 3
				}
			}
		}
		
		effect = {
			add_country_modifier = {
                name = cave_goblin_weapons
                duration = 7300
            }
		}
	}
	cave_goblin_strength_in_numbers = {
		icon = mission_fortify_rajputana
		position = 8
		required_missions = {
		
		}
		trigger = {
			OR = {
				land_forcelimit = 40
				num_of_allies = 1
			}
		}
		
		effect = {
			add_country_modifier = {
                name = cave_goblin_numbers
                duration = 7300
            }
		}
	}
}

cave_goblin_warband_column_1 = {
	slot = 1
	generic = yes
	ai = yes
	potential = {
		primary_culture = cave_goblin
	}
	has_country_shield = yes

    cave_goblin_seeking_loot = {
		icon = mission_fortify_rajputana
		position = 1
		required_missions = {

		}
		trigger = {
			is_at_war = yes
		}
		
		effect = {
			add_country_modifier = {
				name = cave_goblin_looting
				duration = 7300
			}
			hidden_effect = {
				if = {
					limit = {
						ai = yes
					}
					add_treasury = 100
					random_known_country = { #make the AI actually take provinces
						limit = {
							war_with = FROM
						}
						every_owned_province = {
							add_permanent_claim = FROM
						}
					}
				}
			}
		}
	}

	cave_goblin_knives_in_the_dark = {
		icon = mission_fortify_rajputana
		position = 1
		required_missions = {
			cave_goblin_seeking_loot
		}
		trigger = {
			#checking if we conquered stuff. There must be a better way to check this
			any_owned_province = {
				NOT = { is_core = FROM }
			}
		}
		
		effect = {
			add_country_modifier = {
				name = cave_goblin_victory
				duration = 9125
			}
		}
	}

	cave_goblin_expanding_our_influence = {
		icon = mission_fortify_rajputana
		position = 1
		required_missions = {
			cave_goblin_knives_in_the_dark
		}
		trigger = {
			num_of_cities = 8
		}
		
		effect = {
			add_years_of_income = 0.5
			add_country_modifier = {
				name = cave_goblin_expanding_influence
				duration = 7300
			}
		}
	}

	cave_goblin_conquerors_on_the_rise = {
		icon = mission_fortify_rajputana
		position = 1
		required_missions = {
			cave_goblin_expanding_our_influence
		}
		trigger = {
			num_of_cities = 15
		}
		
		effect = {
			add_country_modifier = {
				name = cave_goblin_conquerors
				duration = 9125
			}
		}
	}

	cave_goblin_ravagers_of_the_dwarovar = {
		icon = mission_fortify_rajputana
		position = 1
		required_missions = {
			cave_goblin_conquerors_on_the_rise
		}
		trigger = {
			num_of_cities = 50
		}
		
		effect = {
			add_country_modifier = {
				name = cave_goblin_ravagers
				duration = 9125
			}
		}
	}

	cave_goblin_conquerors_of_the_dwarovar = {
		icon = mission_fortify_rajputana
		position = 1
		required_missions = {
			cave_goblin_ravagers_of_the_dwarovar
		}
		trigger = {
			num_of_cities = 100
		}
		
		effect = {
			add_prestige = 100
			add_adm_power = 200
			add_dip_power = 200
			add_mil_power = 200
		}
	}
}

cave_goblin_warband_column_2 = {
	slot = 2
	generic = yes
	ai = yes
	potential = {
		primary_culture = cave_goblin
	}
	has_country_shield = yes

    g_plunder_the_enemy_fortress = {
		icon = mission_fortify_rajputana
		position = 3
		required_missions = {
			cave_goblin_knives_in_the_dark
			g_our_hold
		}
		trigger = {
			any_owned_province = {
                AND = {
					OR = {
						has_terrain = dwarven_hold
						has_terrain = dwarven_hold_surface
					}
					OR = {
						culture_group = dwarven
						culture_group = orcish
					}
					NOT = {
						province_id = 4128
						province_id = 4149
						province_id = 4122
					}
                }
            }
		}
		
		effect = {
			any_target_province = {
				add_base_manpower = -1
				add_base_production = -1
				add_base_tax = -1
			}
			capital_scope = {
				add_base_manpower = 1
				add_base_production = 1
				add_base_tax = 1
			}
		}
	}

	g_looted_secrets = {
		icon = mission_fortify_rajputana
		position = 1
		required_missions = {
			g_plunder_the_enemy_fortress
		}
		trigger = {
			calc_true_if = {
				all_owned_province = {
            	    OR = {
						has_terrain = dwarven_hold
						has_terrain = dwarven_hold_surface
					}
					NOT = {
						province_id = 4128
						province_id = 4149
						province_id = 4122
					}
				}
				amount = 4
			}
		}
		
		effect = {
			if = {
				limit = {
					is_lacking_institutions = yes
				}
				capital_scope = {
					add_next_institution_embracement = 25
				}
			}
			else_if = {
				limit = {
					NOT = { has_dlc = "Rule Brittania" }
				}
				add_adm_power = 50
			}
			else = {
				change_innovativeness = 10
			}
		}
	}

	g_loot_plunder = {
		icon = mission_fortify_rajputana
		position = 1
		required_missions = {
			g_looted_secrets
		}
		trigger = {
			calc_true_if = {
				all_owned_province = {
            	    OR = {
						has_terrain = dwarven_hold
						has_terrain = dwarven_hold_surface
					}
					NOT = {
						province_id = 4128
						province_id = 4149
						province_id = 4122
					}
				}
				amount = 6
			}
		}
		
		effect = {
			add_treasury = 1000
			every_owned_province = {
				limit = {
					OR = {
						has_terrain = dwarven_hold
						has_terrain = dwarven_hold_surface
					}
					NOT = {
						is_capital = yes
					}
				}
				add_devastation = 100
			}
		}
	}

	g_a_throne_of_loot = {
		icon = mission_fortify_rajputana
		position = 1
		required_missions = {
			g_loot_plunder
		}
		trigger = {
			calc_true_if = {
				all_owned_province = {
            	    OR = {
						has_terrain = dwarven_hold
						has_terrain = dwarven_hold_surface
					}
					NOT = {
						province_id = 4128
						province_id = 4149
						province_id = 4122
					}
				}
				amount = 10
			}
		}
		
		effect = {
			every_owned_province = {
				limit = {
					OR = {
						has_terrain = dwarven_hold
						has_terrain = dwarven_hold_surface
					}
					NOT = {
						is_capital = yes
					}
				}
				add_devastation = 25
				random_list = {
					33 = {
						add_scaled_local_adm_power = 5
						add_base_tax = -1
					}
					33 = {
						add_scaled_local_dip_power = 5
						add_base_production = -1
					}
					33 = {
						add_scaled_local_mil_power = 5
						add_base_manpower = -1
					}
				}
			}
		}
	}
}

cave_goblin_warband_column_3 = {
	slot = 3
	generic = yes
	ai = yes
	potential = {
		primary_culture = cave_goblin
	}
	has_country_shield = yes

    g_conquest_of_a_hold = {
		icon = mission_fortify_rajputana
		position = 1
		required_missions = {

		}
		trigger = {
			any_core_province = {
                OR = {
					has_terrain = dwarven_hold
					has_terrain = dwarven_hold_surface
				}
			}
		}
		
		effect = {
			add_adm_power = 100
			hidden_effect = {
				if = {
					limit = {
						ai = yes
					}
					add_treasury = 150 #help keep them from bankrupting themselves by repairing holds
				}
			}
		}
	}

	g_our_hold = {
		icon = mission_fortify_rajputana
		position = 1
		required_missions = {
			g_conquest_of_a_hold
		}
		trigger = {
			any_owned_province = {
				OR = {
					has_terrain = dwarven_hold
					has_terrain = dwarven_hold_surface
				}
				is_core = FROM
				NOT = {
					has_province_modifier = ruined_hold
					has_province_modifier = partially_ruined_hold
					has_province_modifier = damaged_hold
					has_province_modifier = infested_hold
				}
			}
		}
		
		effect = {
			add_years_of_income = 0.25
			add_adm_power = 50
			random_owned_province = {
				limit = {
					OR = {
						has_terrain = dwarven_hold
						has_terrain = dwarven_hold_surface
					}
					is_core = FROM
					NOT = {
						has_province_modifier = ruined_hold
						has_province_modifier = partially_ruined_hold
						has_province_modifier = damaged_hold
					}
				} 
				owner = { 
					set_capital = PREV
				}
				change_culture = cave_goblin
				change_religion = goblinic_shamanism
			}
		}
	}

	g_a_vault_for_our_plunder = {
		icon = mission_fortify_rajputana
		position = 1
		required_missions = {
			g_our_hold
		}
		trigger = {
			treasury = 1000
		}
		
		effect = {
			add_treasury = -1000
			capital_scope = {
				add_base_tax = 1
				add_base_production = 1
				add_base_tax = 1
				add_province_modifier = {
					name = cave_goblin_booming_capital
					duration = 7300
				}
			}
		}
	}

	g_centralizing_the_clan = {
		icon = mission_fortify_rajputana
		position = 1
		required_missions = {
			g_a_vault_for_our_plunder
		}
		trigger = {
			total_development = 120
			OR = {
				has_reform = martial_society_reform
				has_reform = civil_society_reform
			}
		}
		
		effect = {
			add_country_modifier = {
				name = cave_goblin_reforming
				duration = 1825
			}
			add_government_reform = dwarovar_squatter
		}
	}

	g_settling_down = {
		icon = mission_fortify_rajputana
		position = 1
		required_missions = {
			g_centralizing_the_clan
		}
		trigger = {
			capital_scope = {
				development = 50
			}
			OR = {
				has_reform = religious_societies_reform
				has_reform = lip_service_reform
				government = dictatorship
				government = monarchy
				government = republic
				government = theocracy
			}
		}
		
		effect = {
			change_government_reform_progress = 100
		}
	}
}