G49_internal = {
	slot = 1
	generic = no
	ai = yes
	potential = {
		tag = G49
	}
	has_country_shield = yes
	
	G49_strengthen_values = {
		icon = the_balance_of_power
		required_missions = { }
		position = 2
		
		trigger = {
		    temple = 5
		}
		
		effect = {
		    add_republican_tradition = 10	
		}
	}
	
	G49_protect_the_south = {
		icon = mission_tear_down_spanish_strongholds
		required_missions = { G49_strengthen_values }
		position = 3
		
		provinces_to_highlight = {
		    OR = {
		        province_id = 2743
			    province_id = 2744
			    province_id = 2778
			}	
		}	
		
		trigger = {
		    treasury = 200
			2743 = {
			    owned_by = ROOT
			    development = 10
			}
			2744 = {
			    owned_by = ROOT
			    development = 10
			}
			2778 = {
			    owned_by = ROOT
			    development = 10
			}
		}

        effect = {
		    add_treasury = -200
            2743 = {
				add_province_modifier = {
					name = "kheionai_warded_city"
					duration = -1
				}
			}
            2744 = {
				add_province_modifier = {
					name = "kheionai_warded_city"
					duration = -1
				}
			}
			2778 = {
				add_province_modifier = {
					name = "kheionai_warded_city"
					duration = -1
				}
			}
		}	
	}
	
	G49_farms_of_the_west = {
		icon = mission_rb_import_potatoes
		required_missions = { G49_protect_the_south
                              G49_defeat_the_barbarians }
		position = 4
		
		provinces_to_highlight = {
		    OR = {
			    province_id = 2748
			    province_id = 2751
			    province_id = 2752
			    province_id = 2753
			}	
		}	
		
		trigger = {
			2748 = {
			    owned_by = ROOT
			    development = 6
			}
			2751 = {
			    owned_by = ROOT
			    development = 6
			}
			2752 = {
			    owned_by = ROOT
			    development = 6
			}
			2753 = {
			    owned_by = ROOT
			    development = 6
			}
		}

        effect = {
            2748 = {
				change_trade_goods = grain
			}
            2751 = {
				change_trade_goods = grain
			}
			2752 = {
				change_trade_goods = grain
			}
			2753 = {
				change_trade_goods = grain
			}
        	add_country_modifier = {
				name = lokemeion_new_farms
				duration = 9125 #25 years
			}		
		}	
	}
}

G49_expansion = {
	slot = 2
	generic = no
	ai = yes
	potential = {
		tag = G49
	}
	has_country_shield = yes
	
	G49_alliance_in_the_north = {
		icon = mission_unite_the_princes
		required_missions = { }
		#position = 1
		
		trigger = {
			OR = {    
				alliance_with = G48
				is_rival = G48
			}
		}
		
		effect = {
		    paranego_area = {
				limit = {
					NOT = { is_core = ROOT }
					NOT = { owned_by = ROOT }
				}
				add_permanent_claim = ROOT
		    }
			geneltik_area = {
				limit = {
					NOT = { is_core = ROOT }
					NOT = { owned_by = ROOT }
				}
				add_permanent_claim = ROOT
		    }
		}	
	}
	
	G49_seize_the_southern_tip = {
		icon = mission_weather_the_troubles
		required_missions = { G49_alliance_in_the_north }
		position = 2
		
		provinces_to_highlight = {
			OR = {
				area = paranego_area
				area = geneltik_area
			}
			NOT = {
				country_or_non_sovereign_subject_holds = ROOT
			}
		}
		
		trigger = {
		    paranego_area = {
				type = all
				country_or_non_sovereign_subject_holds = ROOT
			}
			geneltik_area = {
				type = all
				country_or_non_sovereign_subject_holds = ROOT
			}
        }
		
		effect = { 
		    eltikan_area = {
				limit = {
					NOT = { is_core = ROOT }
					NOT = { owned_by = ROOT }
				}
				add_permanent_claim = ROOT
		    }
			lokegentia_area = {
				limit = {
					NOT = { is_core = ROOT }
					NOT = { owned_by = ROOT }
				}
				add_permanent_claim = ROOT
		    }
		}	
	}
	
	G49_defeat_the_barbarians = {
		icon = protect_against_austria
		required_missions = { G49_seize_the_southern_tip }
		position = 3
		
		provinces_to_highlight = {
			OR = {
				area = eltikan_area
				area = lokegentia_area
			}
			NOT = {
				country_or_non_sovereign_subject_holds = ROOT
			}
		}
		
		trigger = {
		    eltikan_area = {
				type = all
				country_or_non_sovereign_subject_holds = ROOT
			}
			lokegentia_area = {
				type = all
				country_or_non_sovereign_subject_holds = ROOT
			}
        }
		
		effect = {
		    G60 = {
                every_owned_province = {
                    add_claim = ROOT
                }
            }
		}	
	}
	
	G49_enlighten_the_elthibar = {
		icon = mission_restore_kiev
		required_missions = { G49_defeat_the_barbarians }
		position = 4
		
		provinces_to_highlight = {
		    OR = {
				area = paranego_area
				area = geneltik_area
				area = lokegentia_area
				area = eltikan_area
			}
		}

        trigger = {
		    dip_power = 100
            AND = {
				paranego_area = {
				    type = all
				    owned_by = ROOT
				    has_owner_religion = yes
				}	
				geneltik_area = {
				    type = all
				    owned_by = ROOT
				    has_owner_religion = yes
				}	
				lokegentia_area = {
				    type = all
				    owned_by = ROOT
				    has_owner_religion = yes
				}	
			    eltikan_area = {
				    type = all
				    owned_by = ROOT
				    has_owner_religion = yes
				}	
			}
        }
		
        effect = {
            add_dip_power = -100
			paranego_area = {
			    change_culture = lokebhen
			}	
			geneltik_area = {
			    change_culture = eltibhen
			}	
    		lokegentia_area = {
			    change_culture = eltibhen
			}	
			eltikan_area = {
			    change_culture = eltibhen
			}
		}
	}
	
	G49_civilized_times = {
		icon = counter_reformation
		required_missions = { G49_enlighten_the_elthibar }
		position = 5
		
		trigger = {
	        innovativeness = 50
		}
		
		effect = {
		    add_country_modifier = {
				name = lokemeion_civilized_times
				duration = -1
			}
		}	
	}
}

G49_west = {
	slot = 3
	generic = no
	ai = yes
	potential = {
		tag = G49
	}
	has_country_shield = yes
	
	G49_the_land_of_dreams = {
		icon = mission_white_tower
		required_missions = { G49_seize_the_southern_tip
                              G49_gather_alecandi_knowledge }
		position = 3
		
		provinces_to_highlight = {
		    province_id = 2780
		}

        trigger = {
            2780 = {
                owned_by = ROOT
                development = 10
                has_building = mage_tower
			}
		}

        effect = {
		    change_innovativeness = 6
			add_country_modifier = {
				name = lokemeion_land_of_dreams
				duration = -1
			}
		}	
	}
	
	G49_the_mountain_library = {
		icon = saxon_manufacturing
		required_missions = { G49_the_land_of_dreams }
		position = 4
		
		provinces_to_highlight = {
		    province_id = 2779
		}

        trigger = {
		    treasury = 200
            2779 = {
                owned_by = ROOT
                development = 10
			}
		}
		
		effect = {
		    add_treasury = -200
			2779 = {
			    add_building = university
			    change_trade_goods = paper
			}
		}	
	}
}

G49_library = {
	slot = 4
	generic = no
	ai = yes
	potential = {
		tag = G49
	}
	has_country_shield = yes
	
	G49_renovation_of_the_grand_library = {
		icon = mission_rb_college_of_justice
		required_missions = { }
		#position = 1
		
		trigger = {
		    treasury = 250
		}
        
        effect = {
		    add_treasury = -250
            add_country_modifier = {
				name = lokemeion_renewed_the_grand_library
				duration = 10950 #30 years
			}
		}	
	}
	
	G49_gather_alecandi_knowledge = {
		icon = mission_discussion_arch
		required_missions = { G49_renovation_of_the_grand_library }
		position = 2
		
		trigger = {
		    treasury = 200
			any_country = {
				capital_scope = {
                    region = alecand_region
			    }
				alliance_with = ROOT
                has_opinion = {
                    who = ROOT
                    value = 150
				}	
			}	
		}
  
        effect = {
		    add_treasury = -200
			2745 = {
			    add_building = university
			}	
			add_country_modifier = {
				name = lokemeion_alecandi_diplomacy
				duration = 5475 #15 years
			}
		}
	}
	
	G49_devandi_ideals = {
		icon = regents_contracts
		required_missions = { G49_gather_alecandi_knowledge }
		position = 3
		
		provinces_to_highlight = {
		    province_id = 2708
		}

        trigger = {
		    treasury = 150
            2708 = {
				country_or_non_sovereign_subject_holds = ROOT
		    }
		}

        effect = {
            add_treasury = -150
            add_country_modifier = {
				name = lokemeion_devandi_inspiration
				duration = 9125 #25 years
			}
			add_country_modifier = {
				name = lokemeion_colonial_drive
				duration = 18250 #50 years
			}
		}
	}
	
	G49_visitors_from_far_away_lands = {
		icon = sav_union_with_naples
		required_missions = { G49_devandi_ideals }
		position = 4
		
		trigger = {
		    treasury = 500
			any_country = {
			    culture_group = anbennarian
			    alliance_with = ROOT
                has_opinion = {
	                who = ROOT
                    value = 150
			    }
            }
		}
  
        effect = {
		    add_treasury = -500
			2745 = {
			    add_next_institution_embracement = 100
			}
		}
	}
	
	G49_the_western_center_of_learning = {
		icon = mission_rb_the_bank_of_scotland
		required_missions = { G49_the_mountain_library
                              G49_visitors_from_far_away_lands
                              G49_the_eastern_library }
		position = 5
		
		trigger = {
		    treasury = 500
		}

        effect = {
            2745 = {
				add_province_modifier = {
					name = "western_center_of_learning"
					duration = 36500 #100 years
				}
			}
		}
	}
}

G49_east = {
	slot = 5
	generic = no
	ai = yes
	potential = {
		tag = G49
	}
	has_country_shield = yes
	
	G49_wisdom_from_the_exiled = {
		icon = mission_early_modern_university
		required_missions = { G49_gather_alecandi_knowledge }
		position = 3
		
		provinces_to_highlight = {
		    province_id = 2620
		}

        trigger = {
            2620 = {
				country_or_non_sovereign_subject_holds = ROOT
		    }
		}

        effect = {
            add_country_modifier = {
				name = lokemeion_exiled_thoughts
				duration = 9125 #25 years
			}
		}
	}
	
	G49_the_eastern_library = {
		icon = mission_metropolis_of_the_deccan
		required_missions = { G49_wisdom_from_the_exiled }
		position = 4
		
		provinces_to_highlight = {
		    province_id = 2541
		}

        trigger = {
            2541 = {
				country_or_non_sovereign_subject_holds = ROOT
		    }
		}

        effect = {
            add_country_modifier = {
				name = lokemeion_eastern_knowledge
				duration = 9125 #25 years
			}
		}
	}
}